{
  "video": false,
  "baseUrl": "${HOST}",
  "reporter": "cypress-mochawesome-reporter",
  "reporterOptions": {
    "reportDir": "report",
    "charts": true,
    "embeddedScreenshots": true,
    "inlineAssets": true,
    "reportPageTitle": "Grinfer E2E"
  }
}
